<?xml version="1.0" encoding="UTF-8" standalone="no"?>
<svg
   height="140"
   width="230"
   version="1.1"
   id="svg20"
   sodipodi:docname="containers-popovers.svg"
   inkscape:version="1.3 (0e150ed6c4, 2023-07-21)"
   xmlns:inkscape="http://www.inkscape.org/namespaces/inkscape"
   xmlns:sodipodi="http://sodipodi.sourceforge.net/DTD/sodipodi-0.dtd"
   xmlns="http://www.w3.org/2000/svg"
   xmlns:svg="http://www.w3.org/2000/svg">
  <defs
     id="defs24">
    <inkscape:path-effect
       effect="fillet_chamfer"
       id="path-effect1"
       is_visible="true"
       lpeversion="1"
       nodesatellites_param="F,0,0,1,0,0,0,1 @ F,0,0,1,0,0,0,1 @ F,0,0,1,0,0,0,1 @ F,0,0,1,0,0,0,1 | F,0,0,1,0,0,0,1 @ F,0,0,1,0,0,0,1 @ F,0,0,1,0,0,0,1 @ F,0,0,1,0,0,0,1 | F,0,0,1,0,0,0,1 @ F,0,0,1,0,0,0,1 @ F,0,0,1,0,0,0,1 @ F,0,0,1,0,0,0,1 | F,0,0,1,0,0,0,1 @ F,0,0,1,0,0,0,1 @ F,0,0,1,0,0,0,1 @ F,0,0,1,0,0,0,1"
       radius="0"
       unit="px"
       method="auto"
       mode="F"
       chamfer_steps="1"
       flexible="false"
       use_knot_distance="true"
       apply_no_radius="true"
       apply_with_radius="true"
       only_selected="false"
       hide_knots="false" />
  </defs>
  <sodipodi:namedview
     id="namedview22"
     pagecolor="#505050"
     bordercolor="#ffffff"
     borderopacity="1"
     inkscape:showpageshadow="0"
     inkscape:pageopacity="0"
     inkscape:pagecheckerboard="1"
     inkscape:deskcolor="#505050"
     showgrid="false"
     inkscape:current-layer="svg20">
    <inkscape:grid
       id="grid1"
       units="px"
       originx="0"
       originy="0"
       spacingx="1"
       spacingy="1"
       empcolor="#3f3fff"
       empopacity="0.25098039"
       color="#3f3fff"
       opacity="0.1254902"
       empspacing="5"
       dotted="false"
       gridanglex="30"
       gridanglez="30"
       visible="false" />
  </sodipodi:namedview>
  <rect
     style="fill:#f5c211;fill-opacity:1;stroke:none;stroke-width:18;stroke-linecap:round;stroke-dashoffset:26.4"
     width="230"
     height="140"
     x="0.001"
     ry="19.740015"
     rx="19.740015"
     id="rect2"
     y="0" />
  <g
     transform="matrix(3.77953,0,0,3.77953,-1120.5939,-441.45139)"
     id="g18"
     style="fill:#ffffff;fill-opacity:0.341598">
    <path
       id="rect4"
       style="fill:#deddda;fill-opacity:1;stroke-width:0.264583"
       d="m 326.20232,122.91341 -1.82005,1.82004 0.005,0.005 h -12.55116 c -1.17282,0 -2.11667,0.94385 -2.11667,2.11667 v 15.61005 c 0,1.17282 0.94385,2.11667 2.11667,2.11667 h 28.81218 c 1.17281,0 2.11718,-0.94385 2.11718,-2.11667 v -15.61005 c 0,-1.17282 -0.94437,-2.11667 -2.11718,-2.11667 h -12.62093 z"
       sodipodi:nodetypes="cccsssssssscc" />
    <path
       d="m 339.7944,127.06203 -0.26351,-0.2651 -1.3223,1.32231 -0.66115,-0.66115 -0.52701,0.53019 1.18816,1.18817 1.85091,-1.84932 z"
       style="line-height:normal;-inkscape-font-specification:Sans;text-indent:0;text-align:start;text-decoration-line:none;text-transform:none;fill:#000000;fill-opacity:0.341598;stroke-width:0.264583;marker:none"
       color="#000000"
       font-weight="400"
       font-family="Sans"
       overflow="visible"
       fill="#3584e4"
       id="path6" />
  </g>
  <rect
     style="fill:#9a9996;fill-opacity:1;stroke:none;stroke-width:0.999998;stroke-linecap:round;stroke-opacity:0.158818;paint-order:markers stroke fill"
     id="rect1"
     width="85"
     height="6"
     x="60.000004"
     y="40"
     rx="3"
     ry="3" />
  <rect
     style="fill:#9a9996;fill-opacity:1;stroke:none;stroke-width:0.999997;stroke-linecap:round;stroke-opacity:0.158818;paint-order:markers stroke fill"
     id="rect6"
     width="104.99999"
     height="6"
     x="60"
     y="55"
     rx="3"
     ry="3" />
  <rect
     style="fill:#9a9996;fill-opacity:1;stroke:none;stroke-width:0.999997;stroke-linecap:round;stroke-opacity:0.158818;paint-order:markers stroke fill"
     id="rect7"
     width="104.99999"
     height="6"
     x="60"
     y="85"
     rx="3"
     ry="3" />
  <rect
     style="fill:#9a9996;fill-opacity:1;stroke:none;stroke-width:0.999997;stroke-linecap:round;stroke-opacity:0.158818;paint-order:markers stroke fill"
     id="rect3"
     width="104.99999"
     height="6"
     x="60"
     y="70"
     rx="3"
     ry="3" />
</svg>
