<?xml version="1.0" encoding="UTF-8" standalone="no"?>
<svg
   height="140"
   width="230"
   version="1.1"
   id="svg3559"
   sodipodi:docname="controls-sliders-dark.svg"
   inkscape:version="1.3 (0e150ed6c4, 2023-07-21)"
   xmlns:inkscape="http://www.inkscape.org/namespaces/inkscape"
   xmlns:sodipodi="http://sodipodi.sourceforge.net/DTD/sodipodi-0.dtd"
   xmlns="http://www.w3.org/2000/svg"
   xmlns:svg="http://www.w3.org/2000/svg">
  <defs
     id="defs3563" />
  <sodipodi:namedview
     id="namedview3561"
     pagecolor="#505050"
     bordercolor="#ffffff"
     borderopacity="1"
     inkscape:showpageshadow="0"
     inkscape:pageopacity="0"
     inkscape:pagecheckerboard="1"
     inkscape:deskcolor="#505050"
     showgrid="true"
     inkscape:current-layer="svg3559">
    <inkscape:grid
       id="grid1"
       units="px"
       originx="0"
       originy="0"
       spacingx="1"
       spacingy="1"
       empcolor="#3f3fff"
       empopacity="0.25098039"
       color="#3f3fff"
       opacity="0.1254902"
       empspacing="5"
       dotted="false"
       gridanglex="30"
       gridanglez="30"
       visible="true" />
  </sodipodi:namedview>
  <rect
     style="font-variation-settings:normal;opacity:1;vector-effect:none;fill:#3d3846;fill-opacity:1;stroke:none;stroke-width:18;stroke-linecap:round;stroke-linejoin:miter;stroke-miterlimit:4;stroke-dasharray:none;stroke-dashoffset:26.4;stroke-opacity:1;-inkscape-stroke:none;stop-color:#000000;stop-opacity:1"
     width="230"
     height="140"
     x="0.001"
     ry="20"
     rx="20"
     id="rect3537"
     y="0" />
  <rect
     width="190.00075"
     height="10.000636"
     x="20.003553"
     y="35.027489"
     rx="5.0003181"
     ry="5.0003181"
     fill="#fff"
     style="fill:#5e5c64;fill-opacity:1;stroke-width:1.84806"
     id="rect3539" />
  <rect
     width="130.01204"
     height="10.000636"
     x="19.987867"
     y="34.999348"
     rx="5.0003181"
     ry="5.0003181"
     fill="#fff"
     style="fill:#62a0ea;fill-opacity:1;stroke-width:1.84806"
     id="rect3541" />
  <rect
     width="190.00075"
     height="10.000636"
     x="20.003553"
     y="95.027504"
     rx="5.0003181"
     ry="5.0003181"
     fill="#fff"
     style="fill:#5e5c64;fill-opacity:1;stroke-width:1.84806"
     id="rect1" />
  <rect
     width="75.012131"
     height="10.000636"
     x="19.987867"
     y="94.999359"
     rx="5.0003176"
     ry="5.0003181"
     fill="#fff"
     style="fill:#62a0ea;fill-opacity:1;stroke-width:1.84806"
     id="rect2" />
  <ellipse
     style="fill:#5e5c64;fill-opacity:1;stroke-width:3.99999;stroke-linecap:round;stroke-linejoin:round;stroke-dashoffset:26.4"
     cx="85.25058"
     cy="100.00001"
     id="circle2"
     rx="19.749418"
     ry="19.999996" />
  <circle
     style="fill:#ffffff;fill-opacity:1;stroke-width:3.99998;stroke-linecap:round;stroke-linejoin:round;stroke-dashoffset:26.4"
     cx="85"
     cy="100"
     r="14.999998"
     id="circle3" />
  <ellipse
     style="fill:#5e5c64;fill-opacity:1;stroke-width:3.99999;stroke-linecap:round;stroke-linejoin:round;stroke-dashoffset:26.4"
     cx="150.25058"
     cy="40.000008"
     id="ellipse3"
     rx="19.749418"
     ry="19.999996" />
  <circle
     style="fill:#ffffff;fill-opacity:1;stroke-width:3.99998;stroke-linecap:round;stroke-linejoin:round;stroke-dashoffset:26.4"
     cx="150"
     cy="40"
     r="14.999998"
     id="circle4" />
</svg>
