<?xml version="1.0" encoding="UTF-8" standalone="no"?>
<svg
   height="140"
   width="230"
   version="1.1"
   id="svg21689"
   sodipodi:docname="guidelines-uiicons.svg"
   inkscape:version="1.3 (0e150ed6c4, 2023-07-21)"
   xmlns:inkscape="http://www.inkscape.org/namespaces/inkscape"
   xmlns:sodipodi="http://sodipodi.sourceforge.net/DTD/sodipodi-0.dtd"
   xmlns:xlink="http://www.w3.org/1999/xlink"
   xmlns="http://www.w3.org/2000/svg"
   xmlns:svg="http://www.w3.org/2000/svg">
  <sodipodi:namedview
     id="namedview21691"
     pagecolor="#505050"
     bordercolor="#ffffff"
     borderopacity="1"
     inkscape:showpageshadow="0"
     inkscape:pageopacity="0"
     inkscape:pagecheckerboard="1"
     inkscape:deskcolor="#505050"
     showgrid="true"
     inkscape:current-layer="svg21689">
    <inkscape:grid
       id="grid1"
       units="px"
       originx="0"
       originy="0"
       spacingx="1"
       spacingy="1"
       empcolor="#3f3fff"
       empopacity="0.25098039"
       color="#3f3fff"
       opacity="0.1254902"
       empspacing="5"
       dotted="false"
       gridanglex="30"
       gridanglez="30"
       visible="true" />
  </sodipodi:namedview>
  <defs
     id="defs21523">
    <linearGradient
       id="linearGradient1"
       inkscape:collect="always">
      <stop
         style="stop-color:#9141ac;stop-opacity:0.99133756;"
         offset="0"
         id="stop1" />
      <stop
         style="stop-color:#f66151;stop-opacity:1"
         offset="1"
         id="stop2" />
    </linearGradient>
    <clipPath
       id="b">
      <path
         d="M0 0h1024v800H0z"
         id="path21424" />
    </clipPath>
    <clipPath
       id="d">
      <path
         d="M0 0h1024v800H0z"
         id="path21427" />
    </clipPath>
    <clipPath
       id="f">
      <path
         d="M0 0h1024v800H0z"
         id="path21430" />
    </clipPath>
    <clipPath
       id="h">
      <path
         d="M0 0h1024v800H0z"
         id="path21433" />
    </clipPath>
    <clipPath
       id="j">
      <path
         d="M0 0h1024v800H0z"
         id="path21436" />
    </clipPath>
    <clipPath
       id="l">
      <path
         d="M0 0h1024v800H0z"
         id="path21439" />
    </clipPath>
    <clipPath
       id="n">
      <path
         d="M0 0h1024v800H0z"
         id="path21442" />
    </clipPath>
    <clipPath
       id="p">
      <path
         d="M0 0h1024v800H0z"
         id="path21445" />
    </clipPath>
    <clipPath
       id="r">
      <path
         d="M0 0h1024v800H0z"
         id="path21448" />
    </clipPath>
    <clipPath
       id="t">
      <path
         d="M0 0h1024v800H0z"
         id="path21451" />
    </clipPath>
    <clipPath
       id="v">
      <path
         d="M0 0h1024v800H0z"
         id="path21454" />
    </clipPath>
    <clipPath
       id="x">
      <path
         d="M0 0h1024v800H0z"
         id="path21457" />
    </clipPath>
    <mask
       id="c">
      <g
         filter="url(#a)"
         style="filter:url(#a)"
         id="g21462">
        <path
           d="M0 0h16v16H0z"
           fill-opacity=".3"
           id="path21460" />
      </g>
    </mask>
    <mask
       id="e">
      <g
         filter="url(#a)"
         style="filter:url(#a)"
         id="g21467">
        <path
           d="M0 0h16v16H0z"
           fill-opacity=".05"
           id="path21465" />
      </g>
    </mask>
    <mask
       id="g">
      <g
         filter="url(#a)"
         style="filter:url(#a)"
         id="g21472">
        <path
           d="M0 0h16v16H0z"
           fill-opacity=".05"
           id="path21470" />
      </g>
    </mask>
    <mask
       id="i">
      <g
         filter="url(#a)"
         style="filter:url(#a)"
         id="g21477">
        <path
           d="M0 0h16v16H0z"
           fill-opacity=".05"
           id="path21475" />
      </g>
    </mask>
    <mask
       id="k">
      <g
         filter="url(#a)"
         style="filter:url(#a)"
         id="g21482">
        <path
           d="M0 0h16v16H0z"
           fill-opacity=".05"
           id="path21480" />
      </g>
    </mask>
    <mask
       id="m">
      <g
         filter="url(#a)"
         style="filter:url(#a)"
         id="g21487">
        <path
           d="M0 0h16v16H0z"
           fill-opacity=".05"
           id="path21485" />
      </g>
    </mask>
    <mask
       id="o">
      <g
         filter="url(#a)"
         style="filter:url(#a)"
         id="g21492">
        <path
           d="M0 0h16v16H0z"
           fill-opacity=".05"
           id="path21490" />
      </g>
    </mask>
    <mask
       id="q">
      <g
         filter="url(#a)"
         style="filter:url(#a)"
         id="g21497">
        <path
           d="M0 0h16v16H0z"
           fill-opacity=".3"
           id="path21495" />
      </g>
    </mask>
    <mask
       id="s">
      <g
         filter="url(#a)"
         style="filter:url(#a)"
         id="g21502">
        <path
           d="M0 0h16v16H0z"
           fill-opacity=".5"
           id="path21500" />
      </g>
    </mask>
    <mask
       id="u">
      <g
         filter="url(#a)"
         style="filter:url(#a)"
         id="g21507">
        <path
           d="M0 0h16v16H0z"
           fill-opacity=".4"
           id="path21505" />
      </g>
    </mask>
    <mask
       id="w">
      <g
         filter="url(#a)"
         style="filter:url(#a)"
         id="g21512">
        <path
           d="M0 0h16v16H0z"
           fill-opacity=".4"
           id="path21510" />
      </g>
    </mask>
    <mask
       id="y">
      <g
         filter="url(#a)"
         style="filter:url(#a)"
         id="g21517">
        <path
           d="M0 0h16v16H0z"
           fill-opacity=".5"
           id="path21515" />
      </g>
    </mask>
    <filter
       id="a"
       height="1"
       width="1"
       x="0"
       y="0">
      <feColorMatrix
         in="SourceGraphic"
         values="0 0 0 0 1 0 0 0 0 1 0 0 0 0 1 0 0 0 1 0"
         id="feColorMatrix21520" />
    </filter>
    <linearGradient
       inkscape:collect="always"
       xlink:href="#linearGradient1"
       id="linearGradient2"
       x1="150"
       y1="12.434357"
       x2="150"
       y2="128.71117"
       gradientUnits="userSpaceOnUse" />
  </defs>
  <rect
     style="font-variation-settings:normal;opacity:1;vector-effect:none;fill:url(#linearGradient2);fill-opacity:1;stroke:none;stroke-width:18;stroke-linecap:round;stroke-linejoin:miter;stroke-miterlimit:4;stroke-dasharray:none;stroke-dashoffset:26.4;stroke-opacity:1;-inkscape-stroke:none;stop-color:#000000;stop-opacity:1"
     width="230"
     height="140"
     x="0.001"
     ry="20.277182"
     rx="20.277182"
     id="rect21525"
     y="0" />
  <g
     color="#000"
     fill="#474747"
     style="fill:#fff;fill-opacity:1;stroke-width:.499986"
     id="g21567">
    <path
       d="M1.984 8.986A1 1 0 0 0 1 10v4a1 1 0 0 0 1 1h4a1 1 0 1 0 0-2H3v-3a1 1 0 0 0-1.016-1.014z"
       style="line-height:normal;font-variant-ligatures:normal;font-variant-position:normal;font-variant-caps:normal;font-variant-numeric:normal;font-variant-alternates:normal;font-feature-settings:normal;text-indent:0;text-align:start;text-decoration-line:none;text-decoration-style:solid;text-decoration-color:#000;text-transform:none;text-orientation:mixed;shape-padding:0;isolation:auto;mix-blend-mode:normal;fill:#fff;fill-opacity:1;stroke-width:.249986;marker:none"
       font-weight="400"
       font-family="sans-serif"
       overflow="visible"
       transform="translate(119.025 93.98) scale(2.00006)"
       id="path21553" />
    <path
       d="M6.48 8.49a1 1 0 0 0-.687.303l-4.5 4.5a1 1 0 1 0 1.414 1.414l4.5-4.5A1 1 0 0 0 6.48 8.49z"
       style="line-height:normal;font-variant-ligatures:normal;font-variant-position:normal;font-variant-caps:normal;font-variant-numeric:normal;font-variant-alternates:normal;font-feature-settings:normal;text-indent:0;text-align:start;text-decoration-line:none;text-decoration-style:solid;text-decoration-color:#000;text-transform:none;text-orientation:mixed;shape-padding:0;isolation:auto;mix-blend-mode:normal;fill:#fff;fill-opacity:1;stroke-width:.249986;marker:none"
       font-weight="400"
       font-family="sans-serif"
       overflow="visible"
       transform="translate(119.025 93.98) scale(2.00006)"
       id="path21555" />
    <path
       d="M1 14h1v1H1z"
       style="fill:#fff;fill-opacity:1;stroke-width:.249986;marker:none"
       overflow="visible"
       transform="translate(119.025 93.98) scale(2.00006)"
       id="path21557" />
    <path
       d="M10 1a1 1 0 1 0 0 2h3v3a1 1 0 1 0 2 0V2a1 1 0 0 0-1-1z"
       style="line-height:normal;font-variant-ligatures:normal;font-variant-position:normal;font-variant-caps:normal;font-variant-numeric:normal;font-variant-alternates:normal;font-feature-settings:normal;text-indent:0;text-align:start;text-decoration-line:none;text-decoration-style:solid;text-decoration-color:#000;text-transform:none;text-orientation:mixed;shape-padding:0;isolation:auto;mix-blend-mode:normal;fill:#fff;fill-opacity:1;stroke-width:.249986;marker:none"
       font-weight="400"
       font-family="sans-serif"
       overflow="visible"
       transform="translate(119.025 93.98) scale(2.00006)"
       id="path21559" />
    <path
       d="M14 1h1v1h-1z"
       style="fill:#fff;fill-opacity:1;stroke-width:.249986;marker:none"
       overflow="visible"
       transform="translate(119.025 93.98) scale(2.00006)"
       id="path21561" />
    <path
       d="M13.984.99a1 1 0 0 0-.69.301l-4.5 4.469a1 1 0 1 0 1.411 1.418l4.5-4.469a1 1 0 0 0-.72-1.719z"
       style="line-height:normal;font-variant-ligatures:normal;font-variant-position:normal;font-variant-caps:normal;font-variant-numeric:normal;font-variant-alternates:normal;font-feature-settings:normal;text-indent:0;text-align:start;text-decoration-line:none;text-decoration-style:solid;text-decoration-color:#000;text-transform:none;text-orientation:mixed;shape-padding:0;isolation:auto;mix-blend-mode:normal;fill:#fff;fill-opacity:1;stroke-width:.249986;marker:none"
       font-weight="400"
       font-family="sans-serif"
       overflow="visible"
       transform="translate(119.025 93.98) scale(2.00006)"
       id="path21563" />
    <path
       d="M1 9h1v1H1zm5 5h1v1H6zm8-8h1v1h-1zM9 1h1v1H9z"
       style="fill:#fff;fill-opacity:1;stroke-width:.249986;marker:none"
       overflow="visible"
       transform="translate(119.025 93.98) scale(2.00006)"
       id="path21565" />
  </g>
  <g
     fill="#62a0ea"
     style="fill:#fff;stroke-width:2.00001"
     id="g21573">
    <path
       d="M291.774 24.365c-3.324 0-6 2.676-6 6v12c0 3.324 2.676 6 6 6h16c3.324 0 6-2.676 6-6v-12c0-3.324-2.676-6-6-6zm0 4h.522l-2.522 2.524v-.524c0-1.108.892-2 2-2zm5.476 0h1.4l-8.876 8.876v-1.4zm5.644 0h2.466l-15.168 15.168a1.956 1.956 0 0 1-.42-1.168v-.88zm5.222.07a1.956 1.956 0 0 1 1.43 1.048l-14.882 14.882h-2.476zm1.658 2.24v11.69c0 1.108-.892 2-2 2h-11.692z"
       style="line-height:normal;font-variant-ligatures:normal;font-variant-position:normal;font-variant-caps:normal;font-variant-numeric:normal;font-variant-alternates:normal;font-feature-settings:normal;text-indent:0;text-align:start;text-decoration-line:none;text-decoration-style:solid;text-decoration-color:#000;text-transform:none;text-orientation:mixed;white-space:normal;shape-padding:0;isolation:auto;mix-blend-mode:normal;solid-color:#000;solid-opacity:1;fill:#fff;stroke-width:4.00001"
       color="#000"
       font-weight="400"
       font-family="sans-serif"
       overflow="visible"
       fill-rule="evenodd"
       transform="translate(-164.773 -9.359)"
       id="path21569" />
    <path
       d="M299.774 50.365c-10 0-10 2-10 2 0 2 2 2 2 2h16c2 0 2-2 2-2s0-2-10-2z"
       style="fill:#fff;stroke-width:1"
       transform="translate(-164.773 -9.359)"
       id="path21571" />
  </g>
  <g
     fill="#62a0ea"
     fill-rule="evenodd"
     style="fill:#fff;stroke-width:2.00001"
     id="g21581">
    <path
       d="M223.772 89.366v28h4v-28z"
       style="line-height:normal;font-variant-ligatures:normal;font-variant-position:normal;font-variant-caps:normal;font-variant-numeric:normal;font-variant-alternates:normal;font-feature-settings:normal;text-indent:0;text-align:start;text-decoration-line:none;text-decoration-style:solid;text-decoration-color:#000;text-transform:none;text-orientation:mixed;white-space:normal;shape-padding:0;isolation:auto;mix-blend-mode:normal;solid-color:#000;solid-opacity:1;fill:#fff;stroke-width:4.00001"
       color="#000"
       font-weight="400"
       font-family="sans-serif"
       overflow="visible"
       transform="translate(-140.771 -33.36)"
       id="path21575" />
    <path
       d="M225.772 89.366a2 2 0 0 0-2 2v12a2 2 0 0 0 2 2h6.766l1.445 2.895a2 2 0 0 0 1.79 1.105h10a2 2 0 0 0 2-2v-12a2 2 0 0 0-2-2h-6.762l-1.45-2.894a2 2 0 0 0-1.789-1.106zm2 4h6.766l1.445 2.895a2 2 0 0 0 1.79 1.105h6v8h-6.762l-1.45-2.894a2 2 0 0 0-1.789-1.106h-6z"
       style="line-height:normal;font-variant-ligatures:normal;font-variant-position:normal;font-variant-caps:normal;font-variant-numeric:normal;font-variant-alternates:normal;font-feature-settings:normal;text-indent:0;text-align:start;text-decoration-line:none;text-decoration-style:solid;text-decoration-color:#000;text-transform:none;text-orientation:mixed;white-space:normal;shape-padding:0;isolation:auto;mix-blend-mode:normal;solid-color:#000;solid-opacity:1;fill:#fff;stroke-width:4.00001"
       color="#000"
       font-weight="400"
       font-family="sans-serif"
       overflow="visible"
       transform="translate(-140.771 -33.36)"
       id="path21577" />
    <path
       d="M225.773 103.368h8l2 4h10v-12h-8l-2-4h-10z"
       style="fill:#fff;stroke-width:1"
       transform="translate(-140.771 -33.36)"
       id="path21579" />
  </g>
  <path
     d="M272.52 178.858a3.685 3.685 0 0 0-3.687 3.688 3.685 3.685 0 0 0 3.688 3.688 3.685 3.685 0 0 0 3.688-3.688 3.685 3.685 0 0 0-3.688-3.688zm-1.587 2.1h.546c.135.007.27.069.364.166l.678.678.694-.678c.14-.122.237-.162.364-.165h.53v.529c0 .151-.019.29-.133.397l-.678.677.662.662c.1.1.149.24.149.38v.53h-.53c-.14 0-.28-.05-.38-.15l-.678-.677-.678.677a.537.537 0 0 1-.38.15h-.53v-.53c0-.14.05-.28.15-.38l.677-.662-.677-.677a.481.481 0 0 1-.15-.397z"
     style="line-height:normal;-inkscape-font-specification:'Andale Mono';text-indent:0;text-align:start;text-decoration-line:none;text-transform:none;fill:#fff;stroke-width:.264583;marker:none"
     color="#bebebe"
     font-weight="400"
     font-family="'Andale Mono'"
     overflow="visible"
     fill="#62a0ea"
     transform="translate(-855 -619.994) scale(3.77953)"
     id="path21583" />
  <g
     fill="#2e3436"
     style="fill:#fff;fill-opacity:1;stroke-width:.5"
     id="g21589">
    <path
       d="M3.043 1A2.042 2.042 0 0 0 1 3.043v9.875a2.04 2.04 0 0 0 2.043 2.043h9.914A2.04 2.04 0 0 0 15 12.918V3.043A2.042 2.042 0 0 0 12.957 1zM3 5.96h10v7H3zm0 0"
       style="fill:#fff;fill-opacity:1;stroke-width:.5"
       transform="matrix(2 0 0 2 79 14.045)"
       id="path21585" />
    <path
       d="M4 10h2v2H4zm3 0h2v2H7zm3-3h2v2h-2zM7 7h2v2H7zM4 7h2v2H4zm0 0"
       style="fill:#fff;fill-opacity:1;stroke-width:.5"
       transform="matrix(2 0 0 2 79 14.045)"
       id="path21587" />
  </g>
  <g
     style="fill:#fff;stroke-width:.499986"
     id="g21643">
    <g
       clip-path="url(#b)"
       mask="url(#c)"
       transform="translate(-161.006 -386.006) scale(2.00006)"
       style="fill:#fff;stroke-width:.499986"
       id="g21593">
      <path
         d="M562.46 212.059h10.45c-1.183.492-1.297 2.46 0 3h-10.45zm0 0"
         fill="#2e3436"
         style="fill:#fff;stroke-width:.249986"
         id="path21591" />
    </g>
    <g
       clip-path="url(#d)"
       mask="url(#e)"
       transform="translate(-161.006 -386.006) scale(2.00006)"
       style="fill:#fff;stroke-width:.499986"
       id="g21597">
      <path
         d="M16 632h1v1h-1zm0 0"
         fill="#2e3436"
         fill-rule="evenodd"
         style="fill:#fff;stroke-width:.249986"
         id="path21595" />
    </g>
    <g
       clip-path="url(#f)"
       mask="url(#g)"
       transform="translate(-161.006 -386.006) scale(2.00006)"
       style="fill:#fff;stroke-width:.499986"
       id="g21601">
      <path
         d="M17 631h1v1h-1zm0 0"
         fill="#2e3436"
         fill-rule="evenodd"
         style="fill:#fff;stroke-width:.249986"
         id="path21599" />
    </g>
    <g
       clip-path="url(#h)"
       mask="url(#i)"
       transform="translate(-161.006 -386.006) scale(2.00006)"
       style="fill:#fff;stroke-width:.499986"
       id="g21605">
      <path
         d="M18 634h1v1h-1zm0 0"
         fill="#2e3436"
         fill-rule="evenodd"
         style="fill:#fff;stroke-width:.249986"
         id="path21603" />
    </g>
    <g
       clip-path="url(#j)"
       mask="url(#k)"
       transform="translate(-161.006 -386.006) scale(2.00006)"
       style="fill:#fff;stroke-width:.499986"
       id="g21609">
      <path
         d="M16 634h1v1h-1zm0 0"
         fill="#2e3436"
         fill-rule="evenodd"
         style="fill:#fff;stroke-width:.249986"
         id="path21607" />
    </g>
    <g
       clip-path="url(#l)"
       mask="url(#m)"
       transform="translate(-161.006 -386.006) scale(2.00006)"
       style="fill:#fff;stroke-width:.499986"
       id="g21613">
      <path
         d="M17 635h1v1h-1zm0 0"
         fill="#2e3436"
         fill-rule="evenodd"
         style="fill:#fff;stroke-width:.249986"
         id="path21611" />
    </g>
    <g
       clip-path="url(#n)"
       mask="url(#o)"
       transform="translate(-161.006 -386.006) scale(2.00006)"
       style="fill:#fff;stroke-width:.499986"
       id="g21617">
      <path
         d="M19 635h1v1h-1zm0 0"
         fill="#2e3436"
         fill-rule="evenodd"
         style="fill:#fff;stroke-width:.249986"
         id="path21615" />
    </g>
    <g
       clip-path="url(#p)"
       mask="url(#q)"
       transform="translate(-161.006 -386.006) scale(2.00006)"
       style="fill:#fff;stroke-width:.499986"
       id="g21621">
      <path
         d="M136 660v7h7v-7zm0 0"
         fill="#2e3436"
         style="fill:#fff;stroke-width:.249986"
         id="path21619" />
    </g>
    <g
       clip-path="url(#r)"
       mask="url(#s)"
       transform="translate(-161.006 -386.006) scale(2.00006)"
       style="fill:#fff;stroke-width:.499986"
       id="g21625">
      <path
         d="M199 642h3v12h-3zm0 0"
         fill="#2e3436"
         style="fill:#fff;stroke-width:.249986"
         id="path21623" />
    </g>
    <path
       d="M258.693 178.065a2.116 2.116 0 0 0-2.047 1.59 2.117 2.117 0 0 0 2.047 1.585 2.116 2.116 0 0 0 2.048-1.591 2.117 2.117 0 0 0-2.048-1.584zm0 .529a1.058 1.058 0 1 1 .001 2.115 1.058 1.058 0 0 1 0-2.115zm0 0"
       fill="#2e3436"
       style="fill:#fff;stroke-width:.132288"
       transform="translate(-1900.532 -1328.033) scale(7.55927)"
       id="path21627" />
    <path
       d="M259.222 179.652a.529.529 0 1 1-1.057 0 .529.529 0 0 1 1.057 0zm0 0"
       fill="#2e3436"
       style="fill:#fff;stroke-width:.132288"
       transform="translate(-1900.532 -1328.033) scale(7.55927)"
       id="path21629" />
    <g
       clip-path="url(#t)"
       mask="url(#u)"
       transform="translate(-161.006 -386.006) scale(2.00006)"
       style="fill:#fff;stroke-width:.499986"
       id="g21633">
      <path
         d="M209.5 144.16c.277 0 .5.223.5.5v1c0 .277-.223.5-.5.5a.498.498 0 0 1-.5-.5v-1c0-.277.223-.5.5-.5zm0 0"
         fill="#2e3436"
         style="fill:#fff;stroke-width:.249986"
         id="path21631" />
    </g>
    <g
       clip-path="url(#v)"
       mask="url(#w)"
       transform="translate(-161.006 -386.006) scale(2.00006)"
       style="fill:#fff;stroke-width:.499986"
       id="g21637">
      <path
         d="M206.5 144.16c.277 0 .5.223.5.5v1c0 .277-.223.5-.5.5a.498.498 0 0 1-.5-.5v-1c0-.277.223-.5.5-.5zm0 0"
         fill="#2e3436"
         style="fill:#fff;stroke-width:.249986"
         id="path21635" />
    </g>
    <g
       clip-path="url(#x)"
       mask="url(#y)"
       transform="translate(-161.006 -386.006) scale(2.00006)"
       style="fill:#fff;stroke-width:.499986"
       id="g21641">
      <path
         d="M229.5 143.16c-.547 0-1 .457-1 1 0 .547.453 1 1 1 .547 0 1-.453 1-1 0-.543-.453-1-1-1zm0 0"
         fill="#2e3436"
         style="fill:#fff;stroke-width:.249986"
         id="path21639" />
    </g>
  </g>
  <path
     d="M239.714 189.442s-1.588 0-1.588 1.588v2.646s.024.75.014 1.058c0 .53-.284.748-.743 1.122-.332.26-.41.694-.162.898.227.189.615.161.878-.181l.54-.78c.37-.537.52-.993.53-1.588l.001-3.175c0-.53.528-.53.528-.53v3.48l1.589-1.627v-1.323c0-.53.527-.53.527-.53l.002 1.324 1.057-1.077c.179-.165.266-.246.53-.246l.001.529-2.118 2.117h2.117s.002.529-.53.529h-2.116l-1.058 1.058c0 .226 0 1.062 1.058 1.062l2.118-.004s1.588 0 1.586-1.583v-4.767z"
     style="line-height:normal;font-variant-ligatures:normal;font-variant-position:normal;font-variant-caps:normal;font-variant-numeric:normal;font-variant-alternates:normal;font-feature-settings:normal;text-indent:0;text-align:start;text-decoration-line:none;text-decoration-style:solid;text-decoration-color:#000;text-transform:none;text-orientation:mixed;white-space:normal;shape-padding:0;isolation:auto;mix-blend-mode:normal;solid-color:#000;solid-opacity:1;fill:#fff;stroke-width:.264583"
     color="#000"
     font-weight="400"
     font-family="sans-serif"
     overflow="visible"
     fill="#62a0ea"
     transform="translate(-855 -619.994) scale(3.77953)"
     id="path21645" />
  <g
     fill="#2e3436"
     style="fill:#fff;stroke-width:.500001"
     id="g21651">
    <path
       d="m12.824 2.781-1.5 1.492A6.44 6.44 0 0 0 7.5 3.012c-3.578 0-6.5 2.922-6.5 6.5s2.922 6.5 6.5 6.5 6.5-2.922 6.5-6.5a6.44 6.44 0 0 0-1.262-3.825l1.496-1.484zM7.5 5.011c2.496 0 4.5 2.005 4.5 4.5 0 2.497-2.004 4.5-4.5 4.5a4.486 4.486 0 0 1-4.5-4.5c0-2.495 2.004-4.5 4.5-4.5zM4.883.004a.997.997 0 0 0-.88.496.99.99 0 0 0 0 1.008c.18.312.517.504.88.496h5.238a.987.987 0 0 0 .875-.496.99.99 0 0 0 0-1.008.995.995 0 0 0-.875-.496zm0 0"
       style="fill:#fff;stroke-width:.500001"
       transform="matrix(2 0 0 2 39.766 53.983)"
       id="path21647" />
    <path
       d="M7 10h1V6H7zm0 0"
       style="fill:#fff;stroke-width:.500001"
       transform="matrix(2 0 0 2 39.766 53.983)"
       id="path21649" />
  </g>
  <g
     fill="#2e3436"
     style="fill:#fff;stroke-width:.500001"
     id="g21659">
    <path
       d="M4 6h1c.258 0 .527-.129.719-.313L7 4.407V11h2V4.406l1.281 1.282c.192.183.41.312.719.312h1V5c0-.309-.09-.55-.281-.75L8 .594 4.281 4.25C4.09 4.45 4 4.691 4 5zm0 0"
       style="fill:#fff;stroke-width:.500001"
       transform="matrix(2 0 0 2 119.004 53.99)"
       id="path21653" />
    <path
       d="M1.008 11.973a3.048 3.048 0 0 0 3.031 3.035h7.918a3.048 3.048 0 0 0 3.031-3.035V10h-2v1.973a1.01 1.01 0 0 1-1.031 1.035H4.039a1.01 1.01 0 0 1-1.031-1.035V10h-2zm0 0"
       style="fill:#fff;stroke-width:.500001"
       transform="matrix(2 0 0 2 119.004 53.99)"
       id="path21655" />
    <path
       d="M4.04 6.969A3.044 3.044 0 0 0 1.007 10v1.977h2V10c0-.59.441-1.031 1.031-1.031H5v-2zm6.96 0v2h.957c.59 0 1.031.441 1.031 1.031v1.977h2V10a3.044 3.044 0 0 0-3.031-3.031zm0 0"
       style="fill:#fff;stroke-width:.500001"
       transform="matrix(2 0 0 2 119.004 53.99)"
       id="path21657" />
  </g>
  <g
     fill="#2e3436"
     style="fill:#fff;stroke-width:.500001"
     id="g21665">
    <path
       d="M8 4.006c-2.195 0-4 1.805-4 4 0 2.195 1.805 4 4 4 2.195 0 4-1.805 4-4 0-2.195-1.805-4-4-4z"
       style="line-height:normal;-inkscape-font-specification:Sans;font-variant-ligatures:normal;font-variant-position:normal;font-variant-caps:normal;font-variant-numeric:normal;font-variant-alternates:normal;font-feature-settings:normal;text-indent:0;text-align:start;text-decoration-line:none;text-decoration-style:solid;text-decoration-color:#000;text-transform:none;text-orientation:mixed;shape-padding:0;isolation:auto;mix-blend-mode:normal;fill:#fff;stroke-width:.250001;marker:none"
       color="#bebebe"
       font-weight="400"
       font-family="Sans"
       overflow="visible"
       transform="matrix(2 0 0 2 159 13.994)"
       id="path21661" />
    <path
       d="M7.5 0h1c.277 0 .5.223.5.5v2c0 .277-.223.5-.5.5h-1a.499.499 0 0 1-.5-.5v-2c0-.277.223-.5.5-.5zm0 13h1c.277 0 .5.223.5.5v2c0 .277-.223.5-.5.5h-1a.499.499 0 0 1-.5-.5v-2c0-.277.223-.5.5-.5zM1.99 2.697l.707-.707a.499.499 0 0 1 .707 0l1.414 1.414a.499.499 0 0 1 0 .707l-.707.707a.499.499 0 0 1-.707 0L1.99 3.404a.499.499 0 0 1 0-.707zm9.192 9.193.707-.708a.499.499 0 0 1 .707 0l1.415 1.414a.499.499 0 0 1 0 .707l-.708.707a.499.499 0 0 1-.707 0l-1.414-1.414a.499.499 0 0 1 0-.707zm-8.485 2.12-.707-.707a.499.499 0 0 1 0-.707l1.414-1.414a.499.499 0 0 1 .707 0l.707.707a.499.499 0 0 1 0 .707L3.404 14.01a.499.499 0 0 1-.707 0zm9.193-9.192-.708-.707a.499.499 0 0 1 0-.707l1.414-1.414a.499.499 0 0 1 .708 0l.707.707a.499.499 0 0 1 0 .707l-1.415 1.414a.499.499 0 0 1-.707 0zM16 7.5v1c0 .277-.223.5-.5.5h-2a.499.499 0 0 1-.5-.5v-1c0-.277.223-.5.5-.5h2c.277 0 .5.223.5.5zm-13 0v1c0 .277-.223.5-.5.5h-2a.499.499 0 0 1-.5-.5v-1c0-.277.223-.5.5-.5h2c.277 0 .5.223.5.5z"
       style="fill:#fff;stroke-width:.500001"
       transform="matrix(2 0 0 2 159 13.994)"
       id="path21663" />
  </g>
  <g
     color="#000"
     font-weight="400"
     font-family="sans-serif"
     fill="#2e3436"
     style="fill:#fff;stroke-width:.500001"
     id="g21679">
    <path
       d="M12.987 2.033a3.515 3.515 0 0 1 3.005 3.711A3.514 3.514 0 0 1 12.5 9a1 1 0 1 1 0-2c.798 0 1.44-.6 1.496-1.395a1.488 1.488 0 0 0-1.287-1.591 1.487 1.487 0 0 0-1.676 1.174 1 1 0 1 1-1.957-.417 3.513 3.513 0 0 1 3.91-2.738z"
       style="line-height:normal;font-variant-ligatures:normal;font-variant-position:normal;font-variant-caps:normal;font-variant-numeric:normal;font-variant-alternates:normal;font-feature-settings:normal;text-indent:0;text-align:start;text-decoration-line:none;text-decoration-style:solid;text-decoration-color:#000;text-transform:none;text-orientation:mixed;shape-padding:0;isolation:auto;mix-blend-mode:normal;fill:#fff;stroke-width:.250001"
       overflow="visible"
       transform="matrix(2 0 0 2 159 93.006)"
       id="path21667" />
    <path
       d="M0 7v2h12.5V7z"
       style="line-height:normal;font-variant-ligatures:normal;font-variant-position:normal;font-variant-caps:normal;font-variant-numeric:normal;font-variant-alternates:normal;font-feature-settings:normal;text-indent:0;text-align:start;text-decoration-line:none;text-decoration-style:solid;text-decoration-color:#000;text-transform:none;text-orientation:mixed;shape-padding:0;isolation:auto;mix-blend-mode:normal;fill:#fff;stroke-width:.250001"
       overflow="visible"
       fill-rule="evenodd"
       transform="matrix(2 0 0 2 159 93.006)"
       id="path21669" />
    <path
       d="M9.397 15.936a2.99 2.99 0 0 0 1.95-.254 3.01 3.01 0 0 0 1.573-3.373A3.009 3.009 0 0 0 10.002 10a1 1 0 1 0 0 2 .99.99 0 0 1 .97.77.992.992 0 0 1-.523 1.125.986.986 0 0 1-1.21-.252 1 1 0 1 0-1.534 1.285c.445.53 1.047.874 1.692 1.008z"
       style="line-height:normal;font-variant-ligatures:normal;font-variant-position:normal;font-variant-caps:normal;font-variant-numeric:normal;font-variant-alternates:normal;font-feature-settings:normal;text-indent:0;text-align:start;text-decoration-line:none;text-decoration-style:solid;text-decoration-color:#000;text-transform:none;text-orientation:mixed;shape-padding:0;isolation:auto;mix-blend-mode:normal;fill:#fff;stroke-width:.250001"
       overflow="visible"
       transform="matrix(2 0 0 2 159 93.006)"
       id="path21671" />
    <path
       d="M0 10v2h10v-2z"
       style="line-height:normal;font-variant-ligatures:normal;font-variant-position:normal;font-variant-caps:normal;font-variant-numeric:normal;font-variant-alternates:normal;font-feature-settings:normal;text-indent:0;text-align:start;text-decoration-line:none;text-decoration-style:solid;text-decoration-color:#000;text-transform:none;text-orientation:mixed;shape-padding:0;isolation:auto;mix-blend-mode:normal;fill:#fff;stroke-width:.250001"
       overflow="visible"
       fill-rule="evenodd"
       transform="matrix(2 0 0 2 159 93.006)"
       id="path21673" />
    <path
       d="M5.14 1.023c.533-.07 1.09.03 1.577.313a2.508 2.508 0 0 1 1.162 2.81A2.506 2.506 0 0 1 5.467 6a1 1 0 1 1 0-2 .487.487 0 0 0 .479-.37.494.494 0 0 0-.231-.564.485.485 0 0 0-.598.079 1 1 0 1 1-1.416-1.413 2.49 2.49 0 0 1 1.44-.709z"
       style="line-height:normal;font-variant-ligatures:normal;font-variant-position:normal;font-variant-caps:normal;font-variant-numeric:normal;font-variant-alternates:normal;font-feature-settings:normal;text-indent:0;text-align:start;text-decoration-line:none;text-decoration-style:solid;text-decoration-color:#000;text-transform:none;text-orientation:mixed;shape-padding:0;isolation:auto;mix-blend-mode:normal;fill:#fff;stroke-width:.250001"
       overflow="visible"
       transform="matrix(2 0 0 2 159 93.006)"
       id="path21675" />
    <path
       d="M0 4v2h5.467V4z"
       style="line-height:normal;font-variant-ligatures:normal;font-variant-position:normal;font-variant-caps:normal;font-variant-numeric:normal;font-variant-alternates:normal;font-feature-settings:normal;text-indent:0;text-align:start;text-decoration-line:none;text-decoration-style:solid;text-decoration-color:#000;text-transform:none;text-orientation:mixed;shape-padding:0;isolation:auto;mix-blend-mode:normal;fill:#fff;stroke-width:.250001"
       overflow="visible"
       fill-rule="evenodd"
       transform="matrix(2 0 0 2 159 93.006)"
       id="path21677" />
  </g>
  <g
     fill="#2e3436"
     style="fill:#fff;fill-opacity:1;stroke-width:.5"
     id="g21687">
    <path
       d="M119-19v3h2v-3z"
       style="line-height:normal;font-variant-ligatures:normal;font-variant-position:normal;font-variant-caps:normal;font-variant-numeric:normal;font-variant-alternates:normal;font-feature-settings:normal;text-indent:0;text-align:start;text-decoration-line:none;text-decoration-style:solid;text-decoration-color:#000;text-transform:none;text-orientation:mixed;white-space:normal;shape-padding:0;isolation:auto;mix-blend-mode:normal;solid-color:#000;solid-opacity:1;fill:#fff;fill-opacity:1;stroke-width:.25"
       color="#000"
       font-weight="400"
       font-family="sans-serif"
       overflow="visible"
       transform="matrix(2 0 0 2 -145 158.006)"
       id="path21681" />
    <path
       d="M120-32c1.662 0 3 1.338 3 3v5c0 1.662-1.338 3-3 3s-3-1.338-3-3v-5c0-1.662 1.338-3 3-3z"
       transform="matrix(2 0 0 2 -145 158.006)"
       style="fill:#fff;fill-opacity:1;stroke-width:.5"
       id="path21683" />
    <path
       d="M114-26v2.01c0 3.306 2.69 5.99 6 5.99s6-2.684 6-5.99V-26h-1.5v2.01c0 2.5-1.993 4.49-4.5 4.49-2.507 0-4.5-1.99-4.5-4.49V-26z"
       style="line-height:normal;font-variant-ligatures:normal;font-variant-position:normal;font-variant-caps:normal;font-variant-numeric:normal;font-variant-alternates:normal;font-feature-settings:normal;text-indent:0;text-align:start;text-decoration-line:none;text-decoration-style:solid;text-decoration-color:#000;text-transform:none;text-orientation:mixed;white-space:normal;shape-padding:0;isolation:auto;mix-blend-mode:normal;solid-color:#000;solid-opacity:1;fill:#fff;fill-opacity:1;stroke-width:.25"
       color="#000"
       font-weight="400"
       font-family="sans-serif"
       overflow="visible"
       transform="matrix(2 0 0 2 -145 158.006)"
       id="path21685" />
  </g>
</svg>
